{
  "path": "/events",
  "method": "get",
  "request": {
    "headers": {
      "Authorization": "Bearer the-bearer-token"
    }
  },
  "response": {
    "status": 200,
    "headers": {
      "Date": "Fri, 29 May 2020 13:57:47 GMT",
      "Etag": "W/\"2563d2e694059cfe01cf05db9b34ff6e\"",
      "Content-Type": "application/json; charset=utf-8",
      "Transfer-Encoding": "chunked",
      "Connection": "keep-alive",
      "Cache-Control": "max-age=0, private, must-revalidate",
      "Referrer-Policy": "strict-origin-when-cross-origin"
    },
    "json_body": {
      "events": [
        {
          "id": "5ed10de6884fef000f5e502a",
          "created_at": "2020-05-29T13:28:06.846Z",
          "type": "scale",
          "app_id": "5ed0fe5d884fef000f5e4fd1",
          "app_name": "example-running-application",
          "user": {
            "username": "example-username",
            "email": "example@null.scalingo.com",
            "id": "us-676bb0c1-1ca9-4682-8ee1-257422e9eab5"
          },
          "type_data": {
            "previous_containers": {
              "web": "3:S",
              "clock": "0:M"
            },
            "containers": {
              "web": "1:S",
              "clock": "0:M"
            }
          }
        },
        {
          "id": "5ed10ddcf112e2000f9f93e3",
          "created_at": "2020-05-29T13:27:56.095Z",
          "type": "restart",
          "app_id": "5ed0fe5d884fef000f5e4fd1",
          "app_name": "example-running-application",
          "user": {
            "username": "example-username",
            "email": "example@null.scalingo.com",
            "id": "us-676bb0c1-1ca9-4682-8ee1-257422e9eab5"
          },
          "type_data": {
            "scope": [
              "web"
            ]
          }
        },
        {
          "id": "5ed10dd1f112e2000f9f93e2",
          "created_at": "2020-05-29T13:27:45.574Z",
          "type": "scale",
          "app_id": "5ed0fe5d884fef000f5e4fd1",
          "app_name": "example-running-application",
          "user": {
            "username": "example-username",
            "email": "example@null.scalingo.com",
            "id": "us-676bb0c1-1ca9-4682-8ee1-257422e9eab5"
          },
          "type_data": {
            "previous_containers": {
              "web": "1:S",
              "clock": "0:M"
            },
            "containers": {
              "web": "3:S",
              "clock": "0:M"
            }
          }
        },
        {
          "id": "5ed10d77884fef000f5e5028",
          "created_at": "2020-05-29T13:26:15.590Z",
          "type": "delete_app",
          "app_id": "5ed10d73884fef000f5e5024",
          "app_name": "some-example-app",
          "user": {
            "username": "example-username",
            "email": "example@null.scalingo.com",
            "id": "us-676bb0c1-1ca9-4682-8ee1-257422e9eab5"
          },
          "type_data": {
          }
        },
        {
          "id": "5ed10d76f112e2000f9f93e0",
          "created_at": "2020-05-29T13:26:14.505Z",
          "type": "edit_variables",
          "app_id": "5ed10d73884fef000f5e5024",
          "app_name": "some-example-app",
          "user": {
            "username": "example-username",
            "email": "example@null.scalingo.com",
            "id": "us-676bb0c1-1ca9-4682-8ee1-257422e9eab5"
          },
          "type_data": {
            "new_vars": null,
            "updated_vars": null,
            "deleted_vars": [
              {
                "name": "name1",
                "value": "value1"
              },
              {
                "name": "name2",
                "value": "value2"
              },
              {
                "name": "name3",
                "value": "value3"
              },
              {
                "name": "name4",
                "value": "value4"
              }
            ]
          }
        },
        {
          "id": "5ed10d76884fef000f5e5027",
          "created_at": "2020-05-29T13:26:14.171Z",
          "type": "delete_variable",
          "app_id": "5ed10d73884fef000f5e5024",
          "app_name": "some-example-app",
          "user": {
            "username": "example-username",
            "email": "example@null.scalingo.com",
            "id": "us-676bb0c1-1ca9-4682-8ee1-257422e9eab5"
          },
          "type_data": {
            "name": "name",
            "value": "newvalue"
          }
        },
        {
          "id": "5ed10d75f112e2000f9f93df",
          "created_at": "2020-05-29T13:26:13.813Z",
          "type": "edit_variables",
          "app_id": "5ed10d73884fef000f5e5024",
          "app_name": "some-example-app",
          "user": {
            "username": "example-username",
            "email": "example@null.scalingo.com",
            "id": "us-676bb0c1-1ca9-4682-8ee1-257422e9eab5"
          },
          "type_data": {
            "new_vars": [
              {
                "name": "name1",
                "value": "value1"
              },
              {
                "name": "name2",
                "value": "value2"
              },
              {
                "name": "name3",
                "value": "value3"
              },
              {
                "name": "name4",
                "value": "value4"
              }
            ],
            "updated_vars": [

            ],
            "deleted_vars": null
          }
        },
        {
          "id": "5ed10d75f112e2000f9f93da",
          "created_at": "2020-05-29T13:26:13.443Z",
          "type": "edit_variable",
          "app_id": "5ed10d73884fef000f5e5024",
          "app_name": "some-example-app",
          "user": {
            "username": "example-username",
            "email": "example@null.scalingo.com",
            "id": "us-676bb0c1-1ca9-4682-8ee1-257422e9eab5"
          },
          "type_data": {
            "addon_name": null,
            "name": "name",
            "old_value": "value",
            "value": "newvalue"
          }
        },
        {
          "id": "5ed10d74f112e2000f9f93d9",
          "created_at": "2020-05-29T13:26:12.808Z",
          "type": "new_variable",
          "app_id": "5ed10d73884fef000f5e5024",
          "app_name": "some-example-app",
          "user": {
            "username": "example-username",
            "email": "example@null.scalingo.com",
            "id": "us-676bb0c1-1ca9-4682-8ee1-257422e9eab5"
          },
          "type_data": {
            "name": "name",
            "value": "value"
          }
        },
        {
          "id": "5ed10d74884fef000f5e5025",
          "created_at": "2020-05-29T13:26:12.084Z",
          "type": "new_app",
          "app_id": "5ed10d73884fef000f5e5024",
          "app_name": "some-example-app",
          "user": {
            "username": "example-username",
            "email": "example@null.scalingo.com",
            "id": "us-676bb0c1-1ca9-4682-8ee1-257422e9eab5"
          },
          "type_data": {
            "git_source": null
          }
        },
        {
          "id": "5ed10d5df112e2000f9f93d7",
          "created_at": "2020-05-29T13:25:49.511Z",
          "type": "delete_app",
          "app_id": "5ed10d59884fef000f5e501e",
          "app_name": "some-example-app",
          "user": {
            "username": "example-username",
            "email": "example@null.scalingo.com",
            "id": "us-676bb0c1-1ca9-4682-8ee1-257422e9eab5"
          },
          "type_data": {
          }
        },
        {
          "id": "5ed10d5c884fef000f5e5023",
          "created_at": "2020-05-29T13:25:48.497Z",
          "type": "edit_variables",
          "app_id": "5ed10d59884fef000f5e501e",
          "app_name": "some-example-app",
          "user": {
            "username": "example-username",
            "email": "example@null.scalingo.com",
            "id": "us-676bb0c1-1ca9-4682-8ee1-257422e9eab5"
          },
          "type_data": {
            "new_vars": null,
            "updated_vars": null,
            "deleted_vars": [
              {
                "name": "name1",
                "value": "value1"
              },
              {
                "name": "name2",
                "value": "value2"
              },
              {
                "name": "name3",
                "value": "value3"
              },
              {
                "name": "name4",
                "value": "value4"
              }
            ]
          }
        },
        {
          "id": "5ed10d5c884fef000f5e5022",
          "created_at": "2020-05-29T13:25:48.196Z",
          "type": "delete_variable",
          "app_id": "5ed10d59884fef000f5e501e",
          "app_name": "some-example-app",
          "user": {
            "username": "example-username",
            "email": "example@null.scalingo.com",
            "id": "us-676bb0c1-1ca9-4682-8ee1-257422e9eab5"
          },
          "type_data": {
            "name": "name",
            "value": "newvalue"
          }
        },
        {
          "id": "5ed10d5bf112e2000f9f93d6",
          "created_at": "2020-05-29T13:25:47.807Z",
          "type": "edit_variables",
          "app_id": "5ed10d59884fef000f5e501e",
          "app_name": "some-example-app",
          "user": {
            "username": "example-username",
            "email": "example@null.scalingo.com",
            "id": "us-676bb0c1-1ca9-4682-8ee1-257422e9eab5"
          },
          "type_data": {
            "new_vars": [
              {
                "name": "name1",
                "value": "value1"
              },
              {
                "name": "name2",
                "value": "value2"
              },
              {
                "name": "name3",
                "value": "value3"
              },
              {
                "name": "name4",
                "value": "value4"
              }
            ],
            "updated_vars": [

            ],
            "deleted_vars": null
          }
        },
        {
          "id": "5ed10d5b884fef000f5e5021",
          "created_at": "2020-05-29T13:25:47.325Z",
          "type": "edit_variable",
          "app_id": "5ed10d59884fef000f5e501e",
          "app_name": "some-example-app",
          "user": {
            "username": "example-username",
            "email": "example@null.scalingo.com",
            "id": "us-676bb0c1-1ca9-4682-8ee1-257422e9eab5"
          },
          "type_data": {
            "addon_name": null,
            "name": "name",
            "old_value": "value",
            "value": "newvalue"
          }
        },
        {
          "id": "5ed10d5af112e2000f9f93d1",
          "created_at": "2020-05-29T13:25:46.699Z",
          "type": "new_variable",
          "app_id": "5ed10d59884fef000f5e501e",
          "app_name": "some-example-app",
          "user": {
            "username": "example-username",
            "email": "example@null.scalingo.com",
            "id": "us-676bb0c1-1ca9-4682-8ee1-257422e9eab5"
          },
          "type_data": {
            "name": "name",
            "value": "value"
          }
        },
        {
          "id": "5ed10d59884fef000f5e501f",
          "created_at": "2020-05-29T13:25:45.988Z",
          "type": "new_app",
          "app_id": "5ed10d59884fef000f5e501e",
          "app_name": "some-example-app",
          "user": {
            "username": "example-username",
            "email": "example@null.scalingo.com",
            "id": "us-676bb0c1-1ca9-4682-8ee1-257422e9eab5"
          },
          "type_data": {
            "git_source": null
          }
        },
        {
          "id": "5ed10d56f112e2000f9f93cf",
          "created_at": "2020-05-29T13:25:42.148Z",
          "type": "delete_app",
          "app_id": "5ed10cee884fef000f5e5019",
          "app_name": "some-example-app",
          "user": {
            "username": "example-username",
            "email": "example@null.scalingo.com",
            "id": "us-676bb0c1-1ca9-4682-8ee1-257422e9eab5"
          },
          "type_data": {
          }
        },
        {
          "id": "5ed10d55884fef000f5e501d",
          "created_at": "2020-05-29T13:25:41.247Z",
          "type": "delete_variable",
          "app_id": "5ed10cee884fef000f5e5019",
          "app_name": "some-example-app",
          "user": {
            "username": "example-username",
            "email": "example@null.scalingo.com",
            "id": "us-676bb0c1-1ca9-4682-8ee1-257422e9eab5"
          },
          "type_data": {
            "name": "name",
            "value": "newvalue"
          }
        },
        {
          "id": "5ed10cf0f112e2000f9f93ce",
          "created_at": "2020-05-29T13:24:00.992Z",
          "type": "edit_variables",
          "app_id": "5ed10cee884fef000f5e5019",
          "app_name": "some-example-app",
          "user": {
            "username": "example-username",
            "email": "example@null.scalingo.com",
            "id": "us-676bb0c1-1ca9-4682-8ee1-257422e9eab5"
          },
          "type_data": {
            "new_vars": [
              {
                "name": "name1",
                "value": "value1"
              },
              {
                "name": "name2",
                "value": "value2"
              },
              {
                "name": "name3",
                "value": "value3"
              },
              {
                "name": "name4",
                "value": "value4"
              }
            ],
            "updated_vars": [

            ],
            "deleted_vars": null
          }
        },
        {
          "id": "5ed10cf0884fef000f5e501c",
          "created_at": "2020-05-29T13:24:00.516Z",
          "type": "edit_variable",
          "app_id": "5ed10cee884fef000f5e5019",
          "app_name": "some-example-app",
          "user": {
            "username": "example-username",
            "email": "example@null.scalingo.com",
            "id": "us-676bb0c1-1ca9-4682-8ee1-257422e9eab5"
          },
          "type_data": {
            "addon_name": null,
            "name": "name",
            "old_value": "value",
            "value": "newvalue"
          }
        },
        {
          "id": "5ed10ceff112e2000f9f93c9",
          "created_at": "2020-05-29T13:23:59.891Z",
          "type": "new_variable",
          "app_id": "5ed10cee884fef000f5e5019",
          "app_name": "some-example-app",
          "user": {
            "username": "example-username",
            "email": "example@null.scalingo.com",
            "id": "us-676bb0c1-1ca9-4682-8ee1-257422e9eab5"
          },
          "type_data": {
            "name": "name",
            "value": "value"
          }
        },
        {
          "id": "5ed10cef884fef000f5e501a",
          "created_at": "2020-05-29T13:23:59.150Z",
          "type": "new_app",
          "app_id": "5ed10cee884fef000f5e5019",
          "app_name": "some-example-app",
          "user": {
            "username": "example-username",
            "email": "example@null.scalingo.com",
            "id": "us-676bb0c1-1ca9-4682-8ee1-257422e9eab5"
          },
          "type_data": {
            "git_source": null
          }
        },
        {
          "id": "5ed10bd4884fef000f5e5018",
          "created_at": "2020-05-29T13:19:16.508Z",
          "type": "delete_app",
          "app_id": "5ed10bd1884fef000f5e5012",
          "app_name": "some-example-app",
          "user": {
            "username": "example-username",
            "email": "example@null.scalingo.com",
            "id": "us-676bb0c1-1ca9-4682-8ee1-257422e9eab5"
          },
          "type_data": {
          }
        },
        {
          "id": "5ed10bd3f112e2000f9f93c7",
          "created_at": "2020-05-29T13:19:15.599Z",
          "type": "delete_variable",
          "app_id": "5ed10bd1884fef000f5e5012",
          "app_name": "some-example-app",
          "user": {
            "username": "example-username",
            "email": "example@null.scalingo.com",
            "id": "us-676bb0c1-1ca9-4682-8ee1-257422e9eab5"
          },
          "type_data": {
            "name": "name",
            "value": "value"
          }
        },
        {
          "id": "5ed10bd3884fef000f5e5017",
          "created_at": "2020-05-29T13:19:15.118Z",
          "type": "edit_variable",
          "app_id": "5ed10bd1884fef000f5e5012",
          "app_name": "some-example-app",
          "user": {
            "username": "example-username",
            "email": "example@null.scalingo.com",
            "id": "us-676bb0c1-1ca9-4682-8ee1-257422e9eab5"
          },
          "type_data": {
            "addon_name": null,
            "name": "name",
            "old_value": "value",
            "value": "value"
          }
        },
        {
          "id": "5ed10bd2f112e2000f9f93c6",
          "created_at": "2020-05-29T13:19:14.576Z",
          "type": "edit_variable",
          "app_id": "5ed10bd1884fef000f5e5012",
          "app_name": "some-example-app",
          "user": {
            "username": "example-username",
            "email": "example@null.scalingo.com",
            "id": "us-676bb0c1-1ca9-4682-8ee1-257422e9eab5"
          },
          "type_data": {
            "addon_name": null,
            "name": "name",
            "old_value": "value",
            "value": "value"
          }
        },
        {
          "id": "5ed10bd2884fef000f5e5016",
          "created_at": "2020-05-29T13:19:14.178Z",
          "type": "new_variable",
          "app_id": "5ed10bd1884fef000f5e5012",
          "app_name": "some-example-app",
          "user": {
            "username": "example-username",
            "email": "example@null.scalingo.com",
            "id": "us-676bb0c1-1ca9-4682-8ee1-257422e9eab5"
          },
          "type_data": {
            "name": "name",
            "value": "value"
          }
        },
        {
          "id": "5ed10bd1884fef000f5e5013",
          "created_at": "2020-05-29T13:19:13.498Z",
          "type": "new_app",
          "app_id": "5ed10bd1884fef000f5e5012",
          "app_name": "some-example-app",
          "user": {
            "username": "example-username",
            "email": "example@null.scalingo.com",
            "id": "us-676bb0c1-1ca9-4682-8ee1-257422e9eab5"
          },
          "type_data": {
            "git_source": null
          }
        },
        {
          "id": "5ed10bb6f112e2000f9f93c5",
          "created_at": "2020-05-29T13:18:46.694Z",
          "type": "delete_app",
          "app_id": "5ed10bb4884fef000f5e500e",
          "app_name": "some-example-app",
          "user": {
            "username": "example-username",
            "email": "example@null.scalingo.com",
            "id": "us-676bb0c1-1ca9-4682-8ee1-257422e9eab5"
          },
          "type_data": {
          }
        }
      ],
      "meta": {
        "pagination": {
          "current_page": 1,
          "next_page": 2,
          "previous_page": null,
          "total_pages": 16,
          "total_count": 455
        }
      }
    }
  }
}